{
  "izbori": "EUParlament 2019",
  "datum": "03.06.2019",
  "vrijeme": "12:45",
  "izboriOznaka": "14",
  "zupSifra": "17",
  "bmSifra": "000",
  "zupNaziv": "SPLITSKO-DALMATINSKA ŽUPANIJA",
  "gropNaziv": "JELSA",
  "bmNaziv": "",
  "bmZatvoreno": 10,
  "bmUkupno": 10,
  "biraciUkupno": 3492,
  "biraciGlasovalo": 1208,
  "biraciGlasovaloPosto": "34,59",
  "listiciUkupno": 1207,
  "listiciVazeci": 1169,
  "listiciVazeciPosto": "96,85",
  "listiciNevazeci": 38,
  "listiciNevazeciPosto": "3,15",
  "lista": [{
    "rbr": 1,
    "stranke": [
      {"naziv": "HRVATSKA DEMOKRATSKA ZAJEDNICA - HDZ"}
    ],
    "jedinstvenaSifra": 9,
    "glasova": 332,
    "naziv": "HDZ",
    "posto": "28,40",
    "lista": [{
      "rbr": 1,
      "naziv": "KARLO RESSLER",
      "glasova": 69,
      "posto": "20,78"
    },{
      "rbr": 2,
      "naziv": "DUBRAVKA ŠUICA",
      "glasova": 46,
      "posto": "13,85"
    },{
      "rbr": 3,
      "naziv": "TOMISLAV SOKOL",
      "glasova": 3,
      "posto": "0,90"
    },{
      "rbr": 4,
      "naziv": "ŽELJANA ZOVKO",
      "glasova": 1,
      "posto": "0,30"
    },{
      "rbr": 5,
      "naziv": "SUNČANA GLAVAK",
      "glasova": 5,
      "posto": "1,50"
    },{
      "rbr": 6,
      "naziv": "MARIJANA BALIĆ",
      "glasova": 4,
      "posto": "1,20"
    },{
      "rbr": 7,
      "naziv": "GORAN PAUK",
      "glasova": 4,
      "posto": "1,20"
    },{
      "rbr": 8,
      "naziv": "NIKOLINA BRNJAC",
      "glasova": 0,
      "posto": "0,00"
    },{
      "rbr": 9,
      "naziv": "STJEPAN RIBIĆ",
      "glasova": 3,
      "posto": "0,90"
    },{
      "rbr": 10,
      "naziv": "DOMAGOJ MAROEVIĆ",
      "glasova": 61,
      "posto": "18,37"
    },{
      "rbr": 11,
      "naziv": "DANIJEL MARUŠIĆ",
      "glasova": 6,
      "posto": "1,80"
    },{
      "rbr": 12,
      "naziv": "STJEPAN ADANIĆ",
      "glasova": 0,
      "posto": "0,00"
    }]
  },{
    "rbr": 2,
    "stranke": [
      {"naziv": "SOCIJALDEMOKRATSKA PARTIJA HRVATSKE - SDP"}
    ],
    "jedinstvenaSifra": 28,
    "glasova": 235,
    "naziv": "SDP",
    "posto": "20,10",
    "lista": [{
      "rbr": 1,
      "naziv": "TONINO PICULA",
      "glasova": 77,
      "posto": "32,76"
    },{
      "rbr": 2,
      "naziv": "BILJANA BORZAN",
      "glasova": 35,
      "posto": "14,89"
    },{
      "rbr": 3,
      "naziv": "PREDRAG FRED MATIĆ",
      "glasova": 14,
      "posto": "5,95"
    },{
      "rbr": 4,
      "naziv": "ROMANA JERKOVIĆ",
      "glasova": 1,
      "posto": "0,42"
    },{
      "rbr": 5,
      "naziv": "JOŠKO KLISOVIĆ",
      "glasova": 8,
      "posto": "3,40"
    },{
      "rbr": 6,
      "naziv": "IVANA POSAVEC KRIVEC",
      "glasova": 0,
      "posto": "0,00"
    },{
      "rbr": 7,
      "naziv": "GORDAN MARAS",
      "glasova": 11,
      "posto": "4,68"
    },{
      "rbr": 8,
      "naziv": "BARBARA ANTOLIĆ VUPORA",
      "glasova": 0,
      "posto": "0,00"
    },{
      "rbr": 9,
      "naziv": "MLADEN NOVAK",
      "glasova": 0,
      "posto": "0,00"
    },{
      "rbr": 10,
      "naziv": "SANJA RADOLOVIĆ",
      "glasova": 0,
      "posto": "0,00"
    },{
      "rbr": 11,
      "naziv": "MIRELA HOLY",
      "glasova": 10,
      "posto": "4,25"
    },{
      "rbr": 12,
      "naziv": "RANKO OSTOJIĆ",
      "glasova": 41,
      "posto": "17,44"
    }]
  },{
    "rbr": 3,
    "stranke": [
      {"naziv": "Kandidacijska lista grupe birača -  KOLAKUŠIĆ MISLAV"}
    ],
    "jedinstvenaSifra": 15,
    "glasova": 114,
    "naziv": "Kandidacijska lista grupe birača -  KOLAKUŠIĆ MISLAV",
    "posto": "9,75",
    "lista": [{
      "rbr": 1,
      "naziv": "MISLAV KOLAKUŠIĆ",
      "glasova": 93,
      "posto": "81,57"
    },{
      "rbr": 2,
      "naziv": "DAVOR BANOVIĆ",
      "glasova": 0,
      "posto": "0,00"
    },{
      "rbr": 3,
      "naziv": "MARJANA BOTIĆ",
      "glasova": 0,
      "posto": "0,00"
    },{
      "rbr": 4,
      "naziv": "IGOR ĆUTUK",
      "glasova": 0,
      "posto": "0,00"
    },{
      "rbr": 5,
      "naziv": "MARINA ZELIĆ",
      "glasova": 0,
      "posto": "0,00"
    },{
      "rbr": 6,
      "naziv": "KATARINA JUKIĆ",
      "glasova": 0,
      "posto": "0,00"
    },{
      "rbr": 7,
      "naziv": "KRISTIJAN STIPANIČEV",
      "glasova": 0,
      "posto": "0,00"
    },{
      "rbr": 8,
      "naziv": "PETRA ŽITKO",
      "glasova": 0,
      "posto": "0,00"
    },{
      "rbr": 9,
      "naziv": "MILAN PUHARIĆ",
      "glasova": 0,
      "posto": "0,00"
    },{
      "rbr": 10,
      "naziv": "NADA TUŠAK",
      "glasova": 0,
      "posto": "0,00"
    },{
      "rbr": 11,
      "naziv": "ALEKSANDAR MILOŠEV",
      "glasova": 1,
      "posto": "0,87"
    },{
      "rbr": 12,
      "naziv": "ALAN SANKOVIĆ",
      "glasova": 0,
      "posto": "0,00"
    }]
  },{
    "rbr": 4,
    "stranke": [
      {"naziv": "HRAST - POKRET ZA USPJEŠNU HRVATSKU"},
      {"naziv": "HRVATSKA KONZERVATIVNA STRANKA - HKS"},
      {"naziv": "HRVATSKA STRANKA PRAVA DR. ANTE STARČEVIĆ - HSP AS"},
      {"naziv": "UJEDINJENI HRVATSKI DOMOLJUBI - UHD"}
    ],
    "jedinstvenaSifra": 6,
    "glasova": 82,
    "naziv": "HRAST - POKRET ZA USPJEŠNU HRVATSKU, HKS, HSP AS, UHD",
    "posto": "7,01",
    "lista": [{
      "rbr": 1,
      "naziv": "RUŽA TOMAŠIĆ",
      "glasova": 59,
      "posto": "71,95"
    },{
      "rbr": 2,
      "naziv": "LADISLAV ILČIĆ",
      "glasova": 0,
      "posto": "0,00"
    },{
      "rbr": 3,
      "naziv": "ŽONI MAKSAN",
      "glasova": 0,
      "posto": "0,00"
    },{
      "rbr": 4,
      "naziv": "ŽELJKO SAČIĆ",
      "glasova": 3,
      "posto": "3,65"
    },{
      "rbr": 5,
      "naziv": "PERO KOVAČEVIĆ",
      "glasova": 1,
      "posto": "1,21"
    },{
      "rbr": 6,
      "naziv": "BERNARDICA JURETIĆ ROŽMAN",
      "glasova": 2,
      "posto": "2,43"
    },{
      "rbr": 7,
      "naziv": "JURE VUJIĆ",
      "glasova": 1,
      "posto": "1,21"
    },{
      "rbr": 8,
      "naziv": "KRISTINA GOGIĆ",
      "glasova": 0,
      "posto": "0,00"
    },{
      "rbr": 9,
      "naziv": "TOMISLAV SUNIĆ",
      "glasova": 0,
      "posto": "0,00"
    },{
      "rbr": 10,
      "naziv": "IVANA PAVIĆ",
      "glasova": 0,
      "posto": "0,00"
    },{
      "rbr": 11,
      "naziv": "PREDRAG MIŠIĆ",
      "glasova": 1,
      "posto": "1,21"
    },{
      "rbr": 12,
      "naziv": "HRVOJE ZEKANOVIĆ",
      "glasova": 3,
      "posto": "3,65"
    }]
  },{
    "rbr": 5,
    "stranke": [
      {"naziv": "BRUNA ESIH - ZLATKO HASANBEGOVIĆ: NEOVISNI ZA HRVATSKU"},
      {"naziv": "HRVATSKA STRANKA PRAVA"}
    ],
    "jedinstvenaSifra": 4,
    "glasova": 76,
    "naziv": "BRUNA ESIH - ZLATKO HASANBEGOVIĆ: NEOVISNI ZA HRVATSKU, HRVATSKA STRANKA PRAVA",
    "posto": "6,50",
    "lista": [{
      "rbr": 1,
      "naziv": "BRUNA ESIH",
      "glasova": 24,
      "posto": "31,57"
    },{
      "rbr": 2,
      "naziv": "TOMISLAV JONJIĆ",
      "glasova": 2,
      "posto": "2,63"
    },{
      "rbr": 3,
      "naziv": "KARLO STARČEVIĆ",
      "glasova": 1,
      "posto": "1,31"
    },{
      "rbr": 4,
      "naziv": "ŽELJKO GLASNOVIĆ",
      "glasova": 24,
      "posto": "31,57"
    },{
      "rbr": 5,
      "naziv": "KREŠIMIR KARTELO",
      "glasova": 0,
      "posto": "0,00"
    },{
      "rbr": 6,
      "naziv": "ANA LEDERER",
      "glasova": 0,
      "posto": "0,00"
    },{
      "rbr": 7,
      "naziv": "DAVORIN KARAČIĆ",
      "glasova": 0,
      "posto": "0,00"
    },{
      "rbr": 8,
      "naziv": "MARTIN MLADEN PAUK",
      "glasova": 0,
      "posto": "0,00"
    },{
      "rbr": 9,
      "naziv": "VLADIMIR KOVAČEVIĆ",
      "glasova": 0,
      "posto": "0,00"
    },{
      "rbr": 10,
      "naziv": "DAMIR MARKUŠ",
      "glasova": 1,
      "posto": "1,31"
    },{
      "rbr": 11,
      "naziv": "MATO ARTUKOVIĆ",
      "glasova": 0,
      "posto": "0,00"
    },{
      "rbr": 12,
      "naziv": "ZLATKO HASANBEGOVIĆ",
      "glasova": 8,
      "posto": "10,52"
    }]
  },{
    "rbr": 6,
    "stranke": [
      {"naziv": "HRVATSKA SELJAČKA STRANKA - HSS"},
      {"naziv": "GRAĐANSKO-LIBERALNI SAVEZ - GLAS"},
      {"naziv": "ISTARSKI DEMOKRATSKI SABOR - IDS"},
      {"naziv": "HRVATSKA STRANKA UMIROVLJENIKA - HSU"},
      {"naziv": "PRIMORSKO GORANSKI SAVEZ - PGS"},
      {"naziv": "DEMOKRATI"},
      {"naziv": "HRVATSKI LABURISTI - STRANKA RADA - LABURISTI"}
    ],
    "jedinstvenaSifra": 12,
    "glasova": 75,
    "naziv": "HSS, GLAS, IDS, HSU, PGS, DEMOKRATI, LABURISTI",
    "posto": "6,41",
    "lista": [{
      "rbr": 1,
      "naziv": "VALTER FLEGO",
      "glasova": 2,
      "posto": "2,66"
    },{
      "rbr": 2,
      "naziv": "JOZO RADOŠ",
      "glasova": 1,
      "posto": "1,33"
    },{
      "rbr": 3,
      "naziv": "ZORAN BAHTIJAREVIĆ",
      "glasova": 39,
      "posto": "52,00"
    },{
      "rbr": 4,
      "naziv": "SILVANO HRELJA",
      "glasova": 1,
      "posto": "1,33"
    },{
      "rbr": 5,
      "naziv": "TEA MIČIĆ BADURINA",
      "glasova": 0,
      "posto": "0,00"
    },{
      "rbr": 6,
      "naziv": "MARINA GRADIŠER",
      "glasova": 1,
      "posto": "1,33"
    },{
      "rbr": 7,
      "naziv": "DIANA TOPČIĆ-ROSENBERG",
      "glasova": 0,
      "posto": "0,00"
    },{
      "rbr": 8,
      "naziv": "DAMIR NOVOTNY",
      "glasova": 1,
      "posto": "1,33"
    },{
      "rbr": 9,
      "naziv": "MIRA MOROVIĆ",
      "glasova": 0,
      "posto": "0,00"
    },{
      "rbr": 10,
      "naziv": "DAMIR JURIĆ",
      "glasova": 0,
      "posto": "0,00"
    },{
      "rbr": 11,
      "naziv": "KREŠO BELJAK",
      "glasova": 17,
      "posto": "22,66"
    },{
      "rbr": 12,
      "naziv": "ANKA MRAK-TARITAŠ",
      "glasova": 2,
      "posto": "2,66"
    }]
  },{
    "rbr": 7,
    "stranke": [
      {"naziv": "MOST NEZAVISNIH LISTA"}
    ],
    "jedinstvenaSifra": 17,
    "glasova": 66,
    "naziv": "MOST NEZAVISNIH LISTA",
    "posto": "5,64",
    "lista": [{
      "rbr": 1,
      "naziv": "BOŽO PETROV",
      "glasova": 22,
      "posto": "33,33"
    },{
      "rbr": 2,
      "naziv": "SONJA ČIKOTIĆ",
      "glasova": 7,
      "posto": "10,60"
    },{
      "rbr": 3,
      "naziv": "IVAN PRSKALO",
      "glasova": 1,
      "posto": "1,51"
    },{
      "rbr": 4,
      "naziv": "INES STRENJA",
      "glasova": 1,
      "posto": "1,51"
    },{
      "rbr": 5,
      "naziv": "RUŽICA VUKOVAC",
      "glasova": 0,
      "posto": "0,00"
    },{
      "rbr": 6,
      "naziv": "ROBERT PODOLNJAK",
      "glasova": 0,
      "posto": "0,00"
    },{
      "rbr": 7,
      "naziv": "LJUBICA AMBRUŠEC",
      "glasova": 0,
      "posto": "0,00"
    },{
      "rbr": 8,
      "naziv": "NIZAR SHOUKRY",
      "glasova": 0,
      "posto": "0,00"
    },{
      "rbr": 9,
      "naziv": "IVAN BEKAVAC",
      "glasova": 0,
      "posto": "0,00"
    },{
      "rbr": 10,
      "naziv": "MATO TOMLJANOVIĆ",
      "glasova": 0,
      "posto": "0,00"
    },{
      "rbr": 11,
      "naziv": "IVAN MATIĆ",
      "glasova": 0,
      "posto": "0,00"
    },{
      "rbr": 12,
      "naziv": "MIRO BULJ",
      "glasova": 15,
      "posto": "22,72"
    }]
  },{
    "rbr": 8,
    "stranke": [
      {"naziv": "ŽIVI ZID"}
    ],
    "jedinstvenaSifra": 33,
    "glasova": 37,
    "naziv": "ŽIVI ZID",
    "posto": "3,16",
    "lista": [{
      "rbr": 1,
      "naziv": "TIHOMIR LUKANIĆ",
      "glasova": 4,
      "posto": "10,81"
    },{
      "rbr": 2,
      "naziv": "DOLORES SCHAUER",
      "glasova": 3,
      "posto": "8,10"
    },{
      "rbr": 3,
      "naziv": "DOMINIK VULETIĆ",
      "glasova": 1,
      "posto": "2,70"
    },{
      "rbr": 4,
      "naziv": "GORANKA DOROTIĆ",
      "glasova": 0,
      "posto": "0,00"
    },{
      "rbr": 5,
      "naziv": "BRANIMIR BUNJAC",
      "glasova": 6,
      "posto": "16,21"
    },{
      "rbr": 6,
      "naziv": "NIKOLINA BUDIMIR",
      "glasova": 0,
      "posto": "0,00"
    },{
      "rbr": 7,
      "naziv": "IVANA DELAŠ",
      "glasova": 2,
      "posto": "5,40"
    },{
      "rbr": 8,
      "naziv": "DINKO ŠTIMAC",
      "glasova": 1,
      "posto": "2,70"
    },{
      "rbr": 9,
      "naziv": "IGOR MARKEŠIĆ",
      "glasova": 0,
      "posto": "0,00"
    },{
      "rbr": 10,
      "naziv": "MAJA OČKO ŠUNJIĆ",
      "glasova": 0,
      "posto": "0,00"
    },{
      "rbr": 11,
      "naziv": "ZVONKO ŠEGVIĆ",
      "glasova": 0,
      "posto": "0,00"
    },{
      "rbr": 12,
      "naziv": "IVAN VILIBOR SINČIĆ",
      "glasova": 7,
      "posto": "18,91"
    }]
  },{
    "rbr": 9,
    "stranke": [
      {"naziv": "HRVATSKA NARODNA STRANKA - LIBERALNI DEMOKRATI - HNS"}
    ],
    "jedinstvenaSifra": 11,
    "glasova": 30,
    "naziv": "HNS",
    "posto": "2,56",
    "lista": [{
      "rbr": 1,
      "naziv": "MATIJA POSAVEC",
      "glasova": 5,
      "posto": "16,66"
    },{
      "rbr": 2,
      "naziv": "TOME ANTIČIĆ",
      "glasova": 0,
      "posto": "0,00"
    },{
      "rbr": 3,
      "naziv": "IVANA NIKOLIĆ POPOVIĆ",
      "glasova": 1,
      "posto": "3,33"
    },{
      "rbr": 4,
      "naziv": "RUŽA KOVAČEVIĆ BILIĆ",
      "glasova": 15,
      "posto": "50,00"
    },{
      "rbr": 5,
      "naziv": "DAVOR NAĐI",
      "glasova": 1,
      "posto": "3,33"
    },{
      "rbr": 6,
      "naziv": "NATAŠA GABRIČEVIĆ",
      "glasova": 0,
      "posto": "0,00"
    },{
      "rbr": 7,
      "naziv": "HABIB TAHIRI",
      "glasova": 0,
      "posto": "0,00"
    },{
      "rbr": 8,
      "naziv": "KRISTINA BULEŠIĆ",
      "glasova": 0,
      "posto": "0,00"
    },{
      "rbr": 9,
      "naziv": "ALEN LEVERIĆ",
      "glasova": 0,
      "posto": "0,00"
    },{
      "rbr": 10,
      "naziv": "MORANA JOKIĆ",
      "glasova": 0,
      "posto": "0,00"
    },{
      "rbr": 11,
      "naziv": "TOMISLAV STOJAK",
      "glasova": 0,
      "posto": "0,00"
    },{
      "rbr": 12,
      "naziv": "STJEPAN ČURAJ",
      "glasova": 1,
      "posto": "3,33"
    }]
  },{
    "rbr": 10,
    "stranke": [
      {"naziv": "Kandidacijska lista grupe birača -  PETIR MARIJANA"}
    ],
    "jedinstvenaSifra": 21,
    "glasova": 21,
    "naziv": "Kandidacijska lista grupe birača -  PETIR MARIJANA",
    "posto": "1,79",
    "lista": [{
      "rbr": 1,
      "naziv": "MARIJANA PETIR",
      "glasova": 19,
      "posto": "90,47"
    },{
      "rbr": 2,
      "naziv": "DOMAGOJ STJEPAN KRNJAK",
      "glasova": 0,
      "posto": "0,00"
    },{
      "rbr": 3,
      "naziv": "MATO BRLOŠIĆ",
      "glasova": 0,
      "posto": "0,00"
    },{
      "rbr": 4,
      "naziv": "KLEMENTINA KARANOVIĆ",
      "glasova": 0,
      "posto": "0,00"
    },{
      "rbr": 5,
      "naziv": "NEDA ABERLE",
      "glasova": 0,
      "posto": "0,00"
    },{
      "rbr": 6,
      "naziv": "ZVONIMIR KALIĆ",
      "glasova": 0,
      "posto": "0,00"
    },{
      "rbr": 7,
      "naziv": "MELITA VRBANEK",
      "glasova": 0,
      "posto": "0,00"
    },{
      "rbr": 8,
      "naziv": "TVRTKO KRPINA",
      "glasova": 0,
      "posto": "0,00"
    },{
      "rbr": 9,
      "naziv": "ANA VOLARIĆ-MRŠIĆ",
      "glasova": 0,
      "posto": "0,00"
    },{
      "rbr": 10,
      "naziv": "ANKA MUSA",
      "glasova": 0,
      "posto": "0,00"
    },{
      "rbr": 11,
      "naziv": "ANA LAŽETA",
      "glasova": 0,
      "posto": "0,00"
    },{
      "rbr": 12,
      "naziv": "PETAR JURČEVIĆ",
      "glasova": 0,
      "posto": "0,00"
    }]
  },{
    "rbr": 11,
    "stranke": [
      {"naziv": "START - STRANKA ANTIKORUPCIJE, RAZVOJA I TRANSPARENTNOSTI - START"}
    ],
    "jedinstvenaSifra": 29,
    "glasova": 18,
    "naziv": "START",
    "posto": "1,53",
    "lista": [{
      "rbr": 1,
      "naziv": "DALIJA OREŠKOVIĆ",
      "glasova": 9,
      "posto": "50,00"
    },{
      "rbr": 2,
      "naziv": "BOJAN GLAVAŠEVIĆ",
      "glasova": 2,
      "posto": "11,11"
    },{
      "rbr": 3,
      "naziv": "NICOLE KWIATKOWSKI",
      "glasova": 0,
      "posto": "0,00"
    },{
      "rbr": 4,
      "naziv": "DUJE PRKUT",
      "glasova": 0,
      "posto": "0,00"
    },{
      "rbr": 5,
      "naziv": "BRANKA LUKAČEVIĆ-GREGIĆ",
      "glasova": 0,
      "posto": "0,00"
    },{
      "rbr": 6,
      "naziv": "TOMISLAV ŽAGAR",
      "glasova": 0,
      "posto": "0,00"
    },{
      "rbr": 7,
      "naziv": "MARINA PAVKOVIĆ",
      "glasova": 0,
      "posto": "0,00"
    },{
      "rbr": 8,
      "naziv": "PERO MRNAREVIĆ",
      "glasova": 0,
      "posto": "0,00"
    },{
      "rbr": 9,
      "naziv": "LEJLA ŠEHIĆ-RELIĆ",
      "glasova": 0,
      "posto": "0,00"
    },{
      "rbr": 10,
      "naziv": "TONĆI TALAJA",
      "glasova": 0,
      "posto": "0,00"
    },{
      "rbr": 11,
      "naziv": "IGOR VLAJNIĆ",
      "glasova": 0,
      "posto": "0,00"
    },{
      "rbr": 12,
      "naziv": "NEBOJŠA BIŠKUP",
      "glasova": 0,
      "posto": "0,00"
    }]
  },{
    "rbr": 12,
    "stranke": [
      {"naziv": "PAMETNO"},
      {"naziv": "UNIJA KVARNERA"}
    ],
    "jedinstvenaSifra": 20,
    "glasova": 14,
    "naziv": "PAMETNO, UNIJA KVARNERA",
    "posto": "1,19",
    "lista": [{
      "rbr": 1,
      "naziv": "IVICA PULJAK",
      "glasova": 10,
      "posto": "71,42"
    },{
      "rbr": 2,
      "naziv": "IVANA MILAS KLARIĆ",
      "glasova": 0,
      "posto": "0,00"
    },{
      "rbr": 3,
      "naziv": "DARIO CAREV",
      "glasova": 0,
      "posto": "0,00"
    },{
      "rbr": 4,
      "naziv": "RENATA SOKOL JURKOVIĆ",
      "glasova": 0,
      "posto": "0,00"
    },{
      "rbr": 5,
      "naziv": "ĐANINO SUČIĆ",
      "glasova": 0,
      "posto": "0,00"
    },{
      "rbr": 6,
      "naziv": "VIKTORIJA KNEŽEVIĆ",
      "glasova": 0,
      "posto": "0,00"
    },{
      "rbr": 7,
      "naziv": "ANTE MANDIĆ",
      "glasova": 0,
      "posto": "0,00"
    },{
      "rbr": 8,
      "naziv": "ALIS MARIĆ",
      "glasova": 0,
      "posto": "0,00"
    },{
      "rbr": 9,
      "naziv": "DAVOR BRMEŽ",
      "glasova": 0,
      "posto": "0,00"
    },{
      "rbr": 10,
      "naziv": "FRANKO BAKOVIĆ",
      "glasova": 0,
      "posto": "0,00"
    },{
      "rbr": 11,
      "naziv": "MAJDA MANJGOTIĆ PARAVIĆ",
      "glasova": 0,
      "posto": "0,00"
    },{
      "rbr": 12,
      "naziv": "BRANIMIR URLIĆ",
      "glasova": 0,
      "posto": "0,00"
    }]
  },{
    "rbr": 13,
    "stranke": [
      {"naziv": "MOŽEMO! - POLITIČKA PLATFORMA"},
      {"naziv": "NOVA LJEVICA"},
      {"naziv": "ODRŽIVI RAZVOJ HRVATSKE - ORaH"}
    ],
    "jedinstvenaSifra": 18,
    "glasova": 12,
    "naziv": "MOŽEMO! - POLITIČKA PLATFORMA, NOVA LJEVICA, ORaH",
    "posto": "1,02",
    "lista": [{
      "rbr": 1,
      "naziv": "TOMISLAV TOMAŠEVIĆ",
      "glasova": 3,
      "posto": "25,00"
    },{
      "rbr": 2,
      "naziv": "RADA BORIĆ",
      "glasova": 1,
      "posto": "8,33"
    },{
      "rbr": 3,
      "naziv": "ZORISLAV ANTUN PETROVIĆ",
      "glasova": 0,
      "posto": "0,00"
    },{
      "rbr": 4,
      "naziv": "SANDRA BENČIĆ",
      "glasova": 0,
      "posto": "0,00"
    },{
      "rbr": 5,
      "naziv": "ANA MARIJA SIMIĆ",
      "glasova": 2,
      "posto": "16,66"
    },{
      "rbr": 6,
      "naziv": "DUBRAVKO LEPUŠIĆ",
      "glasova": 0,
      "posto": "0,00"
    },{
      "rbr": 7,
      "naziv": "KARMELA ROMIĆ",
      "glasova": 0,
      "posto": "0,00"
    },{
      "rbr": 8,
      "naziv": "NEBOJŠA ZELIČ",
      "glasova": 0,
      "posto": "0,00"
    },{
      "rbr": 9,
      "naziv": "NADEŽDA ČAČINOVIČ",
      "glasova": 0,
      "posto": "0,00"
    },{
      "rbr": 10,
      "naziv": "MLADEN SUDAR",
      "glasova": 0,
      "posto": "0,00"
    },{
      "rbr": 11,
      "naziv": "ATANA GRBIĆ-MARTINOVIĆ",
      "glasova": 0,
      "posto": "0,00"
    },{
      "rbr": 12,
      "naziv": "DRAGAN MARKOVINA",
      "glasova": 5,
      "posto": "41,66"
    }]
  },{
    "rbr": 14,
    "stranke": [
      {"naziv": "HRVATSKA DEMOKRATSKA STRANKA"}
    ],
    "jedinstvenaSifra": 8,
    "glasova": 10,
    "naziv": "HRVATSKA DEMOKRATSKA STRANKA",
    "posto": "0,85",
    "lista": [{
      "rbr": 1,
      "naziv": "DEAN GOLUBIĆ",
      "glasova": 3,
      "posto": "30,00"
    },{
      "rbr": 2,
      "naziv": "NINA BOBINAC",
      "glasova": 0,
      "posto": "0,00"
    },{
      "rbr": 3,
      "naziv": "IGOR IVAN JORDANIĆ",
      "glasova": 0,
      "posto": "0,00"
    },{
      "rbr": 4,
      "naziv": "TIA MARIA TVARUŠEK",
      "glasova": 0,
      "posto": "0,00"
    },{
      "rbr": 5,
      "naziv": "DAMIR FERENČAK",
      "glasova": 0,
      "posto": "0,00"
    },{
      "rbr": 6,
      "naziv": "MONIKA BOBINAC FILIPČIĆ",
      "glasova": 0,
      "posto": "0,00"
    },{
      "rbr": 7,
      "naziv": "BRUNO KOREN",
      "glasova": 0,
      "posto": "0,00"
    },{
      "rbr": 8,
      "naziv": "JOSIPA SLAVIĆ",
      "glasova": 0,
      "posto": "0,00"
    },{
      "rbr": 9,
      "naziv": "JOSIP KALE",
      "glasova": 0,
      "posto": "0,00"
    },{
      "rbr": 10,
      "naziv": "GORDANA MARTINIĆ",
      "glasova": 1,
      "posto": "10,00"
    },{
      "rbr": 11,
      "naziv": "LIDIJA VINKOVIĆ",
      "glasova": 1,
      "posto": "10,00"
    },{
      "rbr": 12,
      "naziv": "DOMINIK VALIDŽIĆ",
      "glasova": 0,
      "posto": "0,00"
    }]
  },{
    "rbr": 15,
    "stranke": [
      {"naziv": "ZELENA LISTA"}
    ],
    "jedinstvenaSifra": 32,
    "glasova": 8,
    "naziv": "ZELENA LISTA",
    "posto": "0,68",
    "lista": [{
      "rbr": 1,
      "naziv": "NENAD MATIĆ",
      "glasova": 1,
      "posto": "12,50"
    },{
      "rbr": 2,
      "naziv": "MELANI STARČEVIĆ",
      "glasova": 0,
      "posto": "0,00"
    },{
      "rbr": 3,
      "naziv": "NINO HAT",
      "glasova": 1,
      "posto": "12,50"
    },{
      "rbr": 4,
      "naziv": "MIRJANA KOLAREK-KARAKAŠ",
      "glasova": 0,
      "posto": "0,00"
    },{
      "rbr": 5,
      "naziv": "MIRJANA MALOGORSKI",
      "glasova": 0,
      "posto": "0,00"
    },{
      "rbr": 6,
      "naziv": "MATO MLINARIĆ",
      "glasova": 0,
      "posto": "0,00"
    },{
      "rbr": 7,
      "naziv": "TATJANA HORVAT PELIVAN",
      "glasova": 0,
      "posto": "0,00"
    },{
      "rbr": 8,
      "naziv": "TINO VRBANOVIĆ",
      "glasova": 0,
      "posto": "0,00"
    },{
      "rbr": 9,
      "naziv": "MILJENKO ŠIMUNOVIĆ",
      "glasova": 0,
      "posto": "0,00"
    },{
      "rbr": 10,
      "naziv": "GORAN JUGOVIĆ",
      "glasova": 0,
      "posto": "0,00"
    },{
      "rbr": 11,
      "naziv": "PETER TOT-ĐERĐ",
      "glasova": 1,
      "posto": "12,50"
    },{
      "rbr": 12,
      "naziv": "MARIJA JELINČIĆ",
      "glasova": 1,
      "posto": "12,50"
    }]
  },{
    "rbr": 16,
    "stranke": [
      {"naziv": "AUTOHTONA - HRVATSKA STRANKA PRAVA - A - HSP"}
    ],
    "jedinstvenaSifra": 1,
    "glasova": 6,
    "naziv": "A - HSP",
    "posto": "0,51",
    "lista": [{
      "rbr": 1,
      "naziv": "DRAŽEN KELEMINEC",
      "glasova": 2,
      "posto": "33,33"
    },{
      "rbr": 2,
      "naziv": "NIKOLA LUKIĆ",
      "glasova": 1,
      "posto": "16,66"
    },{
      "rbr": 3,
      "naziv": "MILAN BINGULA",
      "glasova": 0,
      "posto": "0,00"
    },{
      "rbr": 4,
      "naziv": "ZDENKICA PERKOVIĆ",
      "glasova": 1,
      "posto": "16,66"
    },{
      "rbr": 5,
      "naziv": "NENO DOŽDOR",
      "glasova": 0,
      "posto": "0,00"
    },{
      "rbr": 6,
      "naziv": "ŽAN JERIĆ",
      "glasova": 0,
      "posto": "0,00"
    },{
      "rbr": 7,
      "naziv": "IVAN PUŠIĆ",
      "glasova": 0,
      "posto": "0,00"
    },{
      "rbr": 8,
      "naziv": "DOBRILA KUDUZ",
      "glasova": 0,
      "posto": "0,00"
    },{
      "rbr": 9,
      "naziv": "GORAN ŠARIĆ",
      "glasova": 1,
      "posto": "16,66"
    },{
      "rbr": 10,
      "naziv": "FRANC TURNAR",
      "glasova": 0,
      "posto": "0,00"
    },{
      "rbr": 11,
      "naziv": "DARKO CVIJA",
      "glasova": 0,
      "posto": "0,00"
    },{
      "rbr": 12,
      "naziv": "DRAGUTIN JAMBREČINA",
      "glasova": 0,
      "posto": "0,00"
    }]
  },{
    "rbr": 17,
    "stranke": [
      {"naziv": "BLOKIRANI - DEBLOKIRAJMO HRVATSKU - BLOKIRANI"}
    ],
    "jedinstvenaSifra": 3,
    "glasova": 5,
    "naziv": "BLOKIRANI",
    "posto": "0,42",
    "lista": [{
      "rbr": 1,
      "naziv": "MIRIAM KERVATIN",
      "glasova": 0,
      "posto": "0,00"
    },{
      "rbr": 2,
      "naziv": "MARIO STRINAVIĆ",
      "glasova": 0,
      "posto": "0,00"
    },{
      "rbr": 3,
      "naziv": "MARIJA DIVIĆ",
      "glasova": 1,
      "posto": "20,00"
    },{
      "rbr": 4,
      "naziv": "SARAJKO BAKSA",
      "glasova": 0,
      "posto": "0,00"
    },{
      "rbr": 5,
      "naziv": "JOSIP JURČEVIĆ",
      "glasova": 0,
      "posto": "0,00"
    },{
      "rbr": 6,
      "naziv": "JADRANKA TURK",
      "glasova": 0,
      "posto": "0,00"
    },{
      "rbr": 7,
      "naziv": "JOSIP TISOVEC",
      "glasova": 0,
      "posto": "0,00"
    },{
      "rbr": 8,
      "naziv": "MILJENKO ŠKALEC",
      "glasova": 0,
      "posto": "0,00"
    },{
      "rbr": 9,
      "naziv": "IVICA SMOLIĆ",
      "glasova": 1,
      "posto": "20,00"
    },{
      "rbr": 10,
      "naziv": "IVAN HEGEDUŠ",
      "glasova": 0,
      "posto": "0,00"
    },{
      "rbr": 11,
      "naziv": "IGOR GOVORČIN",
      "glasova": 1,
      "posto": "20,00"
    },{
      "rbr": 12,
      "naziv": "ISKRA MARAS-JELAVIĆ",
      "glasova": 0,
      "posto": "0,00"
    }]
  },{
    "rbr": 18,
    "stranke": [
      {"naziv": "HRVATSKA DEMOKRŠĆANSKA STRANKA - HDS"}
    ],
    "jedinstvenaSifra": 10,
    "glasova": 5,
    "naziv": "HDS",
    "posto": "0,42",
    "lista": [{
      "rbr": 1,
      "naziv": "ZORAN JUKIĆ",
      "glasova": 1,
      "posto": "20,00"
    },{
      "rbr": 2,
      "naziv": "TONI TURČINOV",
      "glasova": 0,
      "posto": "0,00"
    },{
      "rbr": 3,
      "naziv": "VJEKOSLAV INDIR",
      "glasova": 0,
      "posto": "0,00"
    },{
      "rbr": 4,
      "naziv": "MILJENKO CMREČAK",
      "glasova": 0,
      "posto": "0,00"
    },{
      "rbr": 5,
      "naziv": "MARIJA CRNIĆ-MARTINOVIĆ",
      "glasova": 0,
      "posto": "0,00"
    },{
      "rbr": 6,
      "naziv": "NADA JOHN",
      "glasova": 0,
      "posto": "0,00"
    },{
      "rbr": 7,
      "naziv": "IGOR VOJKOVIĆ",
      "glasova": 0,
      "posto": "0,00"
    },{
      "rbr": 8,
      "naziv": "SANJA JURIĆ",
      "glasova": 0,
      "posto": "0,00"
    },{
      "rbr": 9,
      "naziv": "IVANA DJEDOVIĆ",
      "glasova": 0,
      "posto": "0,00"
    },{
      "rbr": 10,
      "naziv": "TATJANA JAKŠIĆ",
      "glasova": 0,
      "posto": "0,00"
    },{
      "rbr": 11,
      "naziv": "MILICA ĐURĐIĆ",
      "glasova": 0,
      "posto": "0,00"
    },{
      "rbr": 12,
      "naziv": "DAJANA ŠEHIĆ",
      "glasova": 0,
      "posto": "0,00"
    }]
  },{
    "rbr": 19,
    "stranke": [
      {"naziv": "SNAGA - STRANKA NARODNOG I GRAĐANSKOG AKTIVIZMA - SNAGA"}
    ],
    "jedinstvenaSifra": 27,
    "glasova": 4,
    "naziv": "SNAGA",
    "posto": "0,34",
    "lista": [{
      "rbr": 1,
      "naziv": "GORAN ALEKSIĆ",
      "glasova": 3,
      "posto": "75,00"
    },{
      "rbr": 2,
      "naziv": "KATARINA TURKOVIĆ GULIN",
      "glasova": 0,
      "posto": "0,00"
    },{
      "rbr": 3,
      "naziv": "PATRICIA ĐURIĆ",
      "glasova": 0,
      "posto": "0,00"
    },{
      "rbr": 4,
      "naziv": "ANA ŠESTO",
      "glasova": 0,
      "posto": "0,00"
    },{
      "rbr": 5,
      "naziv": "ELVIS SUDAR",
      "glasova": 0,
      "posto": "0,00"
    },{
      "rbr": 6,
      "naziv": "SRĐAN KALEBOTA",
      "glasova": 0,
      "posto": "0,00"
    },{
      "rbr": 7,
      "naziv": "ANA ŠIMIĆ",
      "glasova": 0,
      "posto": "0,00"
    },{
      "rbr": 8,
      "naziv": "SILVIJA ŠESTO",
      "glasova": 0,
      "posto": "0,00"
    },{
      "rbr": 9,
      "naziv": "NIKO KESOVIJA",
      "glasova": 0,
      "posto": "0,00"
    },{
      "rbr": 10,
      "naziv": "DAVOR BALJAK",
      "glasova": 0,
      "posto": "0,00"
    },{
      "rbr": 11,
      "naziv": "SNJEŽANA BABIĆ VIŠNJIĆ",
      "glasova": 0,
      "posto": "0,00"
    },{
      "rbr": 12,
      "naziv": "BRANKO KOVAČEVIĆ",
      "glasova": 0,
      "posto": "0,00"
    }]
  },{
    "rbr": 20,
    "stranke": [
      {"naziv": "RADNIČKA FRONTA - RF"},
      {"naziv": "SOCIJALISTIČKA RADNIČKA PARTIJA HRVATSKE - SRP"}
    ],
    "jedinstvenaSifra": 23,
    "glasova": 3,
    "naziv": "RF, SRP",
    "posto": "0,25",
    "lista": [{
      "rbr": 1,
      "naziv": "KATARINA PEOVIĆ VUKOVIĆ",
      "glasova": 0,
      "posto": "0,00"
    },{
      "rbr": 2,
      "naziv": "VESNA KONIGSKNECHT",
      "glasova": 0,
      "posto": "0,00"
    },{
      "rbr": 3,
      "naziv": "KRISTOFOR ŠTOKIĆ",
      "glasova": 2,
      "posto": "66,66"
    },{
      "rbr": 4,
      "naziv": "DENIS GETO",
      "glasova": 1,
      "posto": "33,33"
    },{
      "rbr": 5,
      "naziv": "VESNA UGRINA",
      "glasova": 0,
      "posto": "0,00"
    },{
      "rbr": 6,
      "naziv": "NIKICA NADRAMIJA",
      "glasova": 0,
      "posto": "0,00"
    },{
      "rbr": 7,
      "naziv": "DAVOR RAKIĆ",
      "glasova": 0,
      "posto": "0,00"
    },{
      "rbr": 8,
      "naziv": "HRVOJE ŠTEFAN",
      "glasova": 0,
      "posto": "0,00"
    },{
      "rbr": 9,
      "naziv": "ZDENKA STILINOVIĆ",
      "glasova": 0,
      "posto": "0,00"
    },{
      "rbr": 10,
      "naziv": "KATARINA PAVIČIĆ-IVELJA",
      "glasova": 0,
      "posto": "0,00"
    },{
      "rbr": 11,
      "naziv": "MARIO JARKI",
      "glasova": 0,
      "posto": "0,00"
    },{
      "rbr": 12,
      "naziv": "DAVID BILIĆ",
      "glasova": 0,
      "posto": "0,00"
    }]
  },{
    "rbr": 21,
    "stranke": [
      {"naziv": "\"BANDIĆ MILAN 365 - STRANKA RADA I SOLIDARNOSTI\""}
    ],
    "jedinstvenaSifra": 2,
    "glasova": 2,
    "naziv": "\"BANDIĆ MILAN 365 - STRANKA RADA I SOLIDARNOSTI\"",
    "posto": "0,17",
    "lista": [{
      "rbr": 1,
      "naziv": "MARTINA BIENENFELD",
      "glasova": 0,
      "posto": "0,00"
    },{
      "rbr": 2,
      "naziv": "JELENA PAVIČIĆ VUKIČEVIĆ",
      "glasova": 0,
      "posto": "0,00"
    },{
      "rbr": 3,
      "naziv": "DAVOR ŠTERN",
      "glasova": 0,
      "posto": "0,00"
    },{
      "rbr": 4,
      "naziv": "LJUBO JURČIĆ",
      "glasova": 1,
      "posto": "50,00"
    },{
      "rbr": 5,
      "naziv": "GORDANA RUSAK",
      "glasova": 0,
      "posto": "0,00"
    },{
      "rbr": 6,
      "naziv": "MARIJO MOŽNIK",
      "glasova": 0,
      "posto": "0,00"
    },{
      "rbr": 7,
      "naziv": "IRENA CAJNER MRAOVIĆ",
      "glasova": 0,
      "posto": "0,00"
    },{
      "rbr": 8,
      "naziv": "HRVOJE BURIĆ",
      "glasova": 0,
      "posto": "0,00"
    },{
      "rbr": 9,
      "naziv": "ANA VLAHOV",
      "glasova": 1,
      "posto": "50,00"
    },{
      "rbr": 10,
      "naziv": "JOZO MILIĆEVIĆ",
      "glasova": 0,
      "posto": "0,00"
    },{
      "rbr": 11,
      "naziv": "KREŠIMIR ROGINA",
      "glasova": 0,
      "posto": "0,00"
    },{
      "rbr": 12,
      "naziv": "VELJKO ĐORĐEVIĆ",
      "glasova": 0,
      "posto": "0,00"
    }]
  },{
    "rbr": 22,
    "stranke": [
      {"naziv": "DEMOKRATSKI SAVEZ SRBA - DSS"}
    ],
    "jedinstvenaSifra": 5,
    "glasova": 2,
    "naziv": "DSS",
    "posto": "0,17",
    "lista": [{
      "rbr": 1,
      "naziv": "SRĐAN MILAKOVIĆ",
      "glasova": 0,
      "posto": "0,00"
    },{
      "rbr": 2,
      "naziv": "DRAGAN CRNOGORAC",
      "glasova": 0,
      "posto": "0,00"
    },{
      "rbr": 3,
      "naziv": "LUKA ŠUŠAK",
      "glasova": 0,
      "posto": "0,00"
    },{
      "rbr": 4,
      "naziv": "BRANKA BAKŠIĆ",
      "glasova": 0,
      "posto": "0,00"
    },{
      "rbr": 5,
      "naziv": "DUŠAN BJELAJAC",
      "glasova": 0,
      "posto": "0,00"
    },{
      "rbr": 6,
      "naziv": "JOVAN BOJANIĆ",
      "glasova": 1,
      "posto": "50,00"
    },{
      "rbr": 7,
      "naziv": "SRĐAN TATIĆ",
      "glasova": 0,
      "posto": "0,00"
    },{
      "rbr": 8,
      "naziv": "SLAĐANA BUNJEVAC",
      "glasova": 0,
      "posto": "0,00"
    },{
      "rbr": 9,
      "naziv": "ILIJA DRAGELJEVIĆ",
      "glasova": 0,
      "posto": "0,00"
    },{
      "rbr": 10,
      "naziv": "NEBOJŠA MANOJLOVIĆ",
      "glasova": 0,
      "posto": "0,00"
    },{
      "rbr": 11,
      "naziv": "JOVICA RADMANOVIĆ",
      "glasova": 1,
      "posto": "50,00"
    },{
      "rbr": 12,
      "naziv": "SINIŠA LJUBOJEVIĆ",
      "glasova": 0,
      "posto": "0,00"
    }]
  },{
    "rbr": 23,
    "stranke": [
      {"naziv": "HRVATSKA BRANITELJSKA PUČKA STRANKA - HBPS"}
    ],
    "jedinstvenaSifra": 7,
    "glasova": 2,
    "naziv": "HBPS",
    "posto": "0,17",
    "lista": [{
      "rbr": 1,
      "naziv": "NENAD VLAHOVIĆ",
      "glasova": 0,
      "posto": "0,00"
    },{
      "rbr": 2,
      "naziv": "PETRA PETKO",
      "glasova": 0,
      "posto": "0,00"
    },{
      "rbr": 3,
      "naziv": "VJEKOSLAV JOZIĆ",
      "glasova": 0,
      "posto": "0,00"
    },{
      "rbr": 4,
      "naziv": "IVANA SUČIĆ",
      "glasova": 1,
      "posto": "50,00"
    },{
      "rbr": 5,
      "naziv": "JURICA VRVILO",
      "glasova": 0,
      "posto": "0,00"
    },{
      "rbr": 6,
      "naziv": "ANITA HRNKAŠ",
      "glasova": 0,
      "posto": "0,00"
    },{
      "rbr": 7,
      "naziv": "BRIGITA ŠUŠNJAR",
      "glasova": 0,
      "posto": "0,00"
    },{
      "rbr": 8,
      "naziv": "DANIJELA FARAGO",
      "glasova": 0,
      "posto": "0,00"
    },{
      "rbr": 9,
      "naziv": "PETRA JOSIPOVIĆ",
      "glasova": 1,
      "posto": "50,00"
    },{
      "rbr": 10,
      "naziv": "IVAN CIKOJA",
      "glasova": 0,
      "posto": "0,00"
    },{
      "rbr": 11,
      "naziv": "DINKA ANTOLIĆ",
      "glasova": 0,
      "posto": "0,00"
    },{
      "rbr": 12,
      "naziv": "IMBRO BERKEŠ",
      "glasova": 0,
      "posto": "0,00"
    }]
  },{
    "rbr": 24,
    "stranke": [
      {"naziv": "HRVATSKA SOCIJALNO - LIBERALNA STRANKA - HSLS"}
    ],
    "jedinstvenaSifra": 13,
    "glasova": 2,
    "naziv": "HSLS",
    "posto": "0,17",
    "lista": [{
      "rbr": 1,
      "naziv": "SAŠA POLJANEC-BORIĆ",
      "glasova": 0,
      "posto": "0,00"
    },{
      "rbr": 2,
      "naziv": "MARIJO PUŠKARIĆ",
      "glasova": 0,
      "posto": "0,00"
    },{
      "rbr": 3,
      "naziv": "HRVOJE BAŠIĆ",
      "glasova": 0,
      "posto": "0,00"
    },{
      "rbr": 4,
      "naziv": "ANA BALAŠKO",
      "glasova": 0,
      "posto": "0,00"
    },{
      "rbr": 5,
      "naziv": "IVICA ŽUVELA",
      "glasova": 1,
      "posto": "50,00"
    },{
      "rbr": 6,
      "naziv": "BLAŽENKA ZVOŠEC",
      "glasova": 0,
      "posto": "0,00"
    },{
      "rbr": 7,
      "naziv": "GORAN ROMEK",
      "glasova": 0,
      "posto": "0,00"
    },{
      "rbr": 8,
      "naziv": "VLADIMIR ANDRIĆ",
      "glasova": 0,
      "posto": "0,00"
    },{
      "rbr": 9,
      "naziv": "ZORAN VIDOVIĆ",
      "glasova": 0,
      "posto": "0,00"
    },{
      "rbr": 10,
      "naziv": "BELKA ELEZOVIĆ",
      "glasova": 0,
      "posto": "0,00"
    },{
      "rbr": 11,
      "naziv": "DARKO MARKIĆ",
      "glasova": 0,
      "posto": "0,00"
    },{
      "rbr": 12,
      "naziv": "MAJA ŽUGAJ",
      "glasova": 0,
      "posto": "0,00"
    }]
  },{
    "rbr": 25,
    "stranke": [
      {"naziv": "NARODNA STRANKA - REFORMISTI"}
    ],
    "jedinstvenaSifra": 19,
    "glasova": 2,
    "naziv": "REFORMISTI",
    "posto": "0,17",
    "lista": [{
      "rbr": 1,
      "naziv": "RADIMIR ČAČIĆ",
      "glasova": 1,
      "posto": "50,00"
    },{
      "rbr": 2,
      "naziv": "NATALIJA MARTINČEVIĆ",
      "glasova": 0,
      "posto": "0,00"
    },{
      "rbr": 3,
      "naziv": "ERVIN VIČEVIĆ",
      "glasova": 0,
      "posto": "0,00"
    },{
      "rbr": 4,
      "naziv": "ALENKA KOŠIŠA ČIČIN-ŠAIN",
      "glasova": 0,
      "posto": "0,00"
    },{
      "rbr": 5,
      "naziv": "TOMISLAV PALJAK",
      "glasova": 0,
      "posto": "0,00"
    },{
      "rbr": 6,
      "naziv": "ANITA BEGIĆ HADŽIPAŠIĆ",
      "glasova": 0,
      "posto": "0,00"
    },{
      "rbr": 7,
      "naziv": "DAVOR KLJAK",
      "glasova": 0,
      "posto": "0,00"
    },{
      "rbr": 8,
      "naziv": "VLASTA MIŠURAC",
      "glasova": 0,
      "posto": "0,00"
    },{
      "rbr": 9,
      "naziv": "ZEMIR DELIĆ",
      "glasova": 0,
      "posto": "0,00"
    },{
      "rbr": 10,
      "naziv": "ANITA VELIĆ FABIJANIĆ",
      "glasova": 0,
      "posto": "0,00"
    },{
      "rbr": 11,
      "naziv": "ANDRO VLAHUŠIĆ",
      "glasova": 1,
      "posto": "50,00"
    },{
      "rbr": 12,
      "naziv": "DARINKO DUMBOVIĆ",
      "glasova": 0,
      "posto": "0,00"
    }]
  },{
    "rbr": 26,
    "stranke": [
      {"naziv": "SAMOSTALNA DEMOKRATSKA SRPSKA STRANKA - SDSS"}
    ],
    "jedinstvenaSifra": 24,
    "glasova": 2,
    "naziv": "SDSS",
    "posto": "0,17",
    "lista": [{
      "rbr": 1,
      "naziv": "MILORAD PUPOVAC",
      "glasova": 1,
      "posto": "50,00"
    },{
      "rbr": 2,
      "naziv": "DEJAN JOVIĆ",
      "glasova": 0,
      "posto": "0,00"
    },{
      "rbr": 3,
      "naziv": "DRAGANA JECKOV",
      "glasova": 0,
      "posto": "0,00"
    },{
      "rbr": 4,
      "naziv": "JUGOSLAV VESIĆ",
      "glasova": 0,
      "posto": "0,00"
    },{
      "rbr": 5,
      "naziv": "BORIS MILOŠEVIĆ",
      "glasova": 0,
      "posto": "0,00"
    },{
      "rbr": 6,
      "naziv": "ANJA ŠIMPRAGA",
      "glasova": 0,
      "posto": "0,00"
    },{
      "rbr": 7,
      "naziv": "DEJAN MIHAJLOVIĆ",
      "glasova": 0,
      "posto": "0,00"
    },{
      "rbr": 8,
      "naziv": "MIRJANA OLUIĆ-VOLODER",
      "glasova": 0,
      "posto": "0,00"
    },{
      "rbr": 9,
      "naziv": "NIKOLA IVANOVIĆ",
      "glasova": 0,
      "posto": "0,00"
    },{
      "rbr": 10,
      "naziv": "TATJANA VUKOBRATOVIĆ SPASOJEVIĆ",
      "glasova": 0,
      "posto": "0,00"
    },{
      "rbr": 11,
      "naziv": "ALEXANDRA RATKOVIĆ",
      "glasova": 0,
      "posto": "0,00"
    },{
      "rbr": 12,
      "naziv": "SRĐAN JEREMIĆ",
      "glasova": 0,
      "posto": "0,00"
    }]
  },{
    "rbr": 27,
    "stranke": [
      {"naziv": "SLOBODNA HRVATSKA - SH"}
    ],
    "jedinstvenaSifra": 26,
    "glasova": 2,
    "naziv": "SH",
    "posto": "0,17",
    "lista": [{
      "rbr": 1,
      "naziv": "DANIJEL GALOVIĆ",
      "glasova": 1,
      "posto": "50,00"
    },{
      "rbr": 2,
      "naziv": "NEDJELJKA LONČAR",
      "glasova": 0,
      "posto": "0,00"
    },{
      "rbr": 3,
      "naziv": "DAMIR PRESTER",
      "glasova": 0,
      "posto": "0,00"
    },{
      "rbr": 4,
      "naziv": "JADRANKA PLANTAK",
      "glasova": 0,
      "posto": "0,00"
    },{
      "rbr": 5,
      "naziv": "GORKIĆ TARADI",
      "glasova": 0,
      "posto": "0,00"
    },{
      "rbr": 6,
      "naziv": "DAJANA DRAGIČEVIĆ",
      "glasova": 0,
      "posto": "0,00"
    },{
      "rbr": 7,
      "naziv": "MILAN PERKOVAC",
      "glasova": 0,
      "posto": "0,00"
    },{
      "rbr": 8,
      "naziv": "VEDRANA JAKELIĆ",
      "glasova": 0,
      "posto": "0,00"
    },{
      "rbr": 9,
      "naziv": "RUBES LEVADA",
      "glasova": 0,
      "posto": "0,00"
    },{
      "rbr": 10,
      "naziv": "MIRJANA SPAJIĆ",
      "glasova": 0,
      "posto": "0,00"
    },{
      "rbr": 11,
      "naziv": "MARIJA MICULINIĆ",
      "glasova": 0,
      "posto": "0,00"
    },{
      "rbr": 12,
      "naziv": "IVAN POKUPEC",
      "glasova": 0,
      "posto": "0,00"
    }]
  },{
    "rbr": 28,
    "stranke": [
      {"naziv": "HRVATSKA STRANKA REDA - HSR"}
    ],
    "jedinstvenaSifra": 14,
    "glasova": 1,
    "naziv": "HSR",
    "posto": "0,08",
    "lista": [{
      "rbr": 1,
      "naziv": "DARKO DUGA",
      "glasova": 0,
      "posto": "0,00"
    },{
      "rbr": 2,
      "naziv": "ZORAN KOMARIĆ",
      "glasova": 0,
      "posto": "0,00"
    },{
      "rbr": 3,
      "naziv": "KRUNOSLAV DUGA",
      "glasova": 0,
      "posto": "0,00"
    },{
      "rbr": 4,
      "naziv": "SUZANA JURLINA",
      "glasova": 0,
      "posto": "0,00"
    },{
      "rbr": 5,
      "naziv": "DEJAN LUKIĆ",
      "glasova": 0,
      "posto": "0,00"
    },{
      "rbr": 6,
      "naziv": "DARKO BAN",
      "glasova": 0,
      "posto": "0,00"
    },{
      "rbr": 7,
      "naziv": "ROMAN JURLINA",
      "glasova": 0,
      "posto": "0,00"
    },{
      "rbr": 8,
      "naziv": "IVANA GREIF",
      "glasova": 0,
      "posto": "0,00"
    },{
      "rbr": 9,
      "naziv": "LEO DUGALIĆ",
      "glasova": 0,
      "posto": "0,00"
    },{
      "rbr": 10,
      "naziv": "ANA DUGA",
      "glasova": 0,
      "posto": "0,00"
    },{
      "rbr": 11,
      "naziv": "MARSELA KOMARIĆ",
      "glasova": 0,
      "posto": "0,00"
    },{
      "rbr": 12,
      "naziv": "LJUBICA VIDEČAK",
      "glasova": 0,
      "posto": "0,00"
    }]
  },{
    "rbr": 29,
    "stranke": [
      {"naziv": "ZAGORSKA STRANKA ZA ZAGREB - ZSZ"}
    ],
    "jedinstvenaSifra": 31,
    "glasova": 1,
    "naziv": "ZSZ",
    "posto": "0,08",
    "lista": [{
      "rbr": 1,
      "naziv": "LJUBOMIR PULJIĆ",
      "glasova": 0,
      "posto": "0,00"
    },{
      "rbr": 2,
      "naziv": "ŽELJKA NENADIĆ-TABAK",
      "glasova": 0,
      "posto": "0,00"
    },{
      "rbr": 3,
      "naziv": "LARA KRZNARIĆ",
      "glasova": 0,
      "posto": "0,00"
    },{
      "rbr": 4,
      "naziv": "ŽELJKO KRISTOVIĆ",
      "glasova": 0,
      "posto": "0,00"
    },{
      "rbr": 5,
      "naziv": "MARTINA BELOŠEVIĆ",
      "glasova": 1,
      "posto": "100,00"
    },{
      "rbr": 6,
      "naziv": "IVICA ANTOLIĆ",
      "glasova": 0,
      "posto": "0,00"
    },{
      "rbr": 7,
      "naziv": "MILJENKO HRENEK",
      "glasova": 0,
      "posto": "0,00"
    },{
      "rbr": 8,
      "naziv": "MAJA TURINA",
      "glasova": 0,
      "posto": "0,00"
    },{
      "rbr": 9,
      "naziv": "DARKO HRIBERSKI",
      "glasova": 0,
      "posto": "0,00"
    },{
      "rbr": 10,
      "naziv": "SNJEŽANA DUKARIĆ",
      "glasova": 0,
      "posto": "0,00"
    },{
      "rbr": 11,
      "naziv": "IVAN HERCIGONJA",
      "glasova": 0,
      "posto": "0,00"
    },{
      "rbr": 12,
      "naziv": "DOMINIK PULJIĆ",
      "glasova": 0,
      "posto": "0,00"
    }]
  },{
    "rbr": 30,
    "stranke": [
      {"naziv": "MOJA VOLJENA HRVATSKA - MVH"}
    ],
    "jedinstvenaSifra": 16,
    "glasova": 0,
    "naziv": "MVH",
    "posto": "0,00",
    "lista": [{
      "rbr": 1,
      "naziv": "IVAN LIPAK",
      "glasova": 0,
      "posto": "0,00"
    },{
      "rbr": 2,
      "naziv": "IVO BUTKOVIĆ",
      "glasova": 0,
      "posto": "0,00"
    },{
      "rbr": 3,
      "naziv": "IVICA LENČI",
      "glasova": 0,
      "posto": "0,00"
    },{
      "rbr": 4,
      "naziv": "MARICA MILINKOVIĆ",
      "glasova": 0,
      "posto": "0,00"
    },{
      "rbr": 5,
      "naziv": "DAVOR ANČIĆ",
      "glasova": 0,
      "posto": "0,00"
    },{
      "rbr": 6,
      "naziv": "IVAN TRŽIĆ",
      "glasova": 0,
      "posto": "0,00"
    },{
      "rbr": 7,
      "naziv": "ZVONIMIR MARCIUŠ",
      "glasova": 0,
      "posto": "0,00"
    },{
      "rbr": 8,
      "naziv": "RADMILA KODER",
      "glasova": 0,
      "posto": "0,00"
    },{
      "rbr": 9,
      "naziv": "VLADO VIDAKOVIĆ",
      "glasova": 0,
      "posto": "0,00"
    },{
      "rbr": 10,
      "naziv": "DRAGUTIN KODER",
      "glasova": 0,
      "posto": "0,00"
    },{
      "rbr": 11,
      "naziv": "IVAN MILINKOVIĆ",
      "glasova": 0,
      "posto": "0,00"
    },{
      "rbr": 12,
      "naziv": "TOMISLAV NÜRNBERGER",
      "glasova": 0,
      "posto": "0,00"
    }]
  },{
    "rbr": 31,
    "stranke": [
      {"naziv": "POKRET ZA MODERNU HRVATSKU"}
    ],
    "jedinstvenaSifra": 22,
    "glasova": 0,
    "naziv": "POKRET ZA MODERNU HRVATSKU",
    "posto": "0,00",
    "lista": [{
      "rbr": 1,
      "naziv": "DAMIR MIHELIĆ",
      "glasova": 0,
      "posto": "0,00"
    },{
      "rbr": 2,
      "naziv": "SNJEŽANA KUKEC BAJTO",
      "glasova": 0,
      "posto": "0,00"
    },{
      "rbr": 3,
      "naziv": "DAMIR GAŠPAROVIĆ",
      "glasova": 0,
      "posto": "0,00"
    },{
      "rbr": 4,
      "naziv": "ELLA DELAČ",
      "glasova": 0,
      "posto": "0,00"
    },{
      "rbr": 5,
      "naziv": "ŽELJKA MITOVSKI",
      "glasova": 0,
      "posto": "0,00"
    },{
      "rbr": 6,
      "naziv": "TOMISLAV KOMLJENOVIĆ",
      "glasova": 0,
      "posto": "0,00"
    },{
      "rbr": 7,
      "naziv": "ŽARKO BARKOVIĆ",
      "glasova": 0,
      "posto": "0,00"
    },{
      "rbr": 8,
      "naziv": "SANJICA STAJČIĆ-MILOŠEVIĆ",
      "glasova": 0,
      "posto": "0,00"
    },{
      "rbr": 9,
      "naziv": "NEVEN BOTICA",
      "glasova": 0,
      "posto": "0,00"
    },{
      "rbr": 10,
      "naziv": "DARIJA GAŠPAROVIĆ",
      "glasova": 0,
      "posto": "0,00"
    },{
      "rbr": 11,
      "naziv": "MIRJANA MIHELJA",
      "glasova": 0,
      "posto": "0,00"
    },{
      "rbr": 12,
      "naziv": "ANTE ROSO",
      "glasova": 0,
      "posto": "0,00"
    }]
  },{
    "rbr": 32,
    "stranke": [
      {"naziv": "SLOBODARSKA STRANKA HRVATSKE - SSH"}
    ],
    "jedinstvenaSifra": 25,
    "glasova": 0,
    "naziv": "SSH",
    "posto": "0,00",
    "lista": [{
      "rbr": 1,
      "naziv": "MIRO MATIJEVIĆ",
      "glasova": 0,
      "posto": "0,00"
    },{
      "rbr": 2,
      "naziv": "ZDENKA PRPIĆ",
      "glasova": 0,
      "posto": "0,00"
    },{
      "rbr": 3,
      "naziv": "RADOVAN SMOKVINA",
      "glasova": 0,
      "posto": "0,00"
    },{
      "rbr": 4,
      "naziv": "RIKARDO ŠETIĆ",
      "glasova": 0,
      "posto": "0,00"
    },{
      "rbr": 5,
      "naziv": "NADA ŠVARC",
      "glasova": 0,
      "posto": "0,00"
    },{
      "rbr": 6,
      "naziv": "PETAR RADENIĆ",
      "glasova": 0,
      "posto": "0,00"
    },{
      "rbr": 7,
      "naziv": "ANTE ČOTIĆ",
      "glasova": 0,
      "posto": "0,00"
    },{
      "rbr": 8,
      "naziv": "PATRICIA HRKAČ POPILKA",
      "glasova": 0,
      "posto": "0,00"
    },{
      "rbr": 9,
      "naziv": "NATAŠA STICH KARAMATIĆ",
      "glasova": 0,
      "posto": "0,00"
    },{
      "rbr": 10,
      "naziv": "ŽELJKO ZADRAVAC",
      "glasova": 0,
      "posto": "0,00"
    },{
      "rbr": 11,
      "naziv": "DAMIR ŠKVORC",
      "glasova": 0,
      "posto": "0,00"
    },{
      "rbr": 12,
      "naziv": "IGOR POPILKA",
      "glasova": 0,
      "posto": "0,00"
    }]
  },{
    "rbr": 33,
    "stranke": [
      {"naziv": "STRANKA HRVATSKOG ZAJEDNIŠTVA - SHZ"}
    ],
    "jedinstvenaSifra": 30,
    "glasova": 0,
    "naziv": "SHZ",
    "posto": "0,00",
    "lista": [{
      "rbr": 1,
      "naziv": "MILJENKO MARIĆ",
      "glasova": 0,
      "posto": "0,00"
    },{
      "rbr": 2,
      "naziv": "ČEDO ALIĆ",
      "glasova": 0,
      "posto": "0,00"
    },{
      "rbr": 3,
      "naziv": "SANJA VUKELIĆ",
      "glasova": 0,
      "posto": "0,00"
    },{
      "rbr": 4,
      "naziv": "PETRA ANTUNOVIĆ",
      "glasova": 0,
      "posto": "0,00"
    },{
      "rbr": 5,
      "naziv": "LJILJANA DRAŽENOVIĆ",
      "glasova": 0,
      "posto": "0,00"
    },{
      "rbr": 6,
      "naziv": "NIKOLA ŠIMIĆ",
      "glasova": 0,
      "posto": "0,00"
    },{
      "rbr": 7,
      "naziv": "LJUBICA GEBHARD",
      "glasova": 0,
      "posto": "0,00"
    },{
      "rbr": 8,
      "naziv": "ANĐELKO KARDUM",
      "glasova": 0,
      "posto": "0,00"
    },{
      "rbr": 9,
      "naziv": "KARMELA FIŠER",
      "glasova": 0,
      "posto": "0,00"
    },{
      "rbr": 10,
      "naziv": "GORAN MARINOVIĆ",
      "glasova": 0,
      "posto": "0,00"
    },{
      "rbr": 11,
      "naziv": "LJUBO GAŠPAR",
      "glasova": 0,
      "posto": "0,00"
    },{
      "rbr": 12,
      "naziv": "GAŠPAR BILIĆ",
      "glasova": 0,
      "posto": "0,00"
    }]
  }]
}
